{
    "variants": {
        "volume=0": { "model": "colorama:paintcanRemoverEmpty" },
        "volume=1": { "model": "colorama:paintcanRemoverQuarter" },
        "volume=2": { "model": "colorama:paintcanRemoverHalf" },
        "volume=3": { "model": "colorama:paintcanRemoverQuarter3" },
        "volume=4": { "model": "colorama:paintcanRemoverFull" }
    }
}
