{
    "variants": {
        "volume=0": { "model": "colorama:paintcanEmpty" },
        "volume=1": { "model": "colorama:paintcanQuarter" },
        "volume=2": { "model": "colorama:paintcanHalf" },
        "volume=3": { "model": "colorama:paintcanQuarter3" },
        "volume=4": { "model": "colorama:paintcanFull" }
    }
}
