{
    "variants": {
        "variant=stonebrick": { "model": "colorama:stonebrick" },
        "variant=mossy_stonebrick": { "model": "colorama:stonebrick_mossy" },
        "variant=cracked_stonebrick": { "model": "colorama:stonebrick_cracked" },
        "variant=chiseled_stonebrick": { "model": "colorama:stonebrick_chiseled" }
    }
}
