{
    "variants": {
        "variant=oak": { "model": "colorama:planks_oak" },
        "variant=spruce": { "model": "colorama:planks_spruce" },
        "variant=birch": { "model": "colorama:planks_birch" },
        "variant=jungle": { "model": "colorama:planks_jungle" },
        "variant=acacia": { "model": "colorama:planks_acacia" },
        "variant=dark_oak": { "model": "colorama:planks_dark_oak" }
    }
}
