{
    "__comment": "Model generated using MrCrayfish's Model Creator (http://mrcrayfish.com/modelcreator/)",
    "textures": {
        "particle": "colorama:blocks/paintcanSide",
        "0": "colorama:blocks/paintcanTop",
        "1": "colorama:blocks/paintcanSideRemover",
        "2": "colorama:blocks/paintcanSide"
    },
    "elements": [
        {
            "name": "Base",
            "from": [ 5.0, 0.0, 5.0 ], 
            "to": [ 11.0, 1.0, 11.0 ], 
            "faces": {
                "north": { "texture": "#-1", "uv": [ 0.0, 0.0, 6.0, 8.0 ], "cullface": "north" },
                "east": { "texture": "#-1", "uv": [ 0.0, 0.0, 6.0, 8.0 ] },
                "south": { "texture": "#-1", "uv": [ 0.0, 0.0, 6.0, 8.0 ] },
                "west": { "texture": "#-1", "uv": [ 0.0, 0.0, 6.0, 8.0 ] },
                "up": { "texture": "#0", "uv": [ 5.0, 5.0, 11.0, 11.0 ], "cullface": "up" },
                "down": { "texture": "#0", "uv": [ 5.0, 5.0, 11.0, 11.0 ], "cullface": "down" }
            }
        },
        {
            "name": "Cover",
            "from": [ -3.0, 8.0, 5.0 ], 
            "to": [ 3.0, 9.0, 11.0 ], 
            "rotation": { "origin": [ 8.0, 8.0, 8.0 ], "axis": "z", "angle": 45.0 },
            "faces": {
                "north": { "texture": "#0", "uv": [ 1.0, 0.0, 6.0, 1.0 ], "cullface": "north" },
                "east": { "texture": "#0", "uv": [ 1.0, 0.0, 6.0, 1.0 ], "cullface": "east" },
                "south": { "texture": "#0", "uv": [ 1.0, 0.0, 6.0, 1.0 ], "cullface": "south" },
                "west": { "texture": "#0", "uv": [ 1.0, 0.0, 6.0, 1.0 ], "cullface": "west" },
                "up": { "texture": "#0", "uv": [ 5.0, 5.0, 11.0, 11.0 ], "cullface": "up" },
                "down": { "texture": "#0", "uv": [ 5.0, 5.0, 11.0, 11.0 ], "cullface": "down" }
            }
        },
        {
            "name": "SideN",
            "from": [ 5.0, 0.0, 4.0 ], 
            "to": [ 11.0, 8.0, 5.0 ], 
            "faces": {
                "north": { "texture": "#1", "uv": [ 1.0, 2.0, 7.0, 10.0 ], "cullface": "north" },
                "east": { "texture": "#2", "uv": [ 2.0, 2.0, 3.0, 10.0 ], "cullface": "east" },
                "south": { "texture": "#1", "uv": [ 1.0, 1.0, 7.0, 9.0 ], "cullface": "south" },
                "west": { "texture": "#2", "uv": [ 2.0, 2.0, 3.0, 10.0 ], "cullface": "west" },
                "up": { "texture": "#2", "uv": [ 0.0, 0.0, 6.0, 1.0 ], "cullface": "up" },
                "down": { "texture": "#0", "uv": [ 0.0, 0.0, 6.0, 1.0 ], "cullface": "down" }
            }
        },
        {
            "name": "SideS",
            "from": [ 5.0, 0.0, 11.0 ], 
            "to": [ 11.0, 8.0, 12.0 ], 
            "faces": {
                "north": { "texture": "#1", "uv": [ 1.0, 1.0, 7.0, 9.0 ] },
                "east": { "texture": "#2", "uv": [ 2.0, 2.0, 3.0, 10.0 ], "cullface": "east" },
                "south": { "texture": "#1", "uv": [ 1.0, 2.0, 7.0, 10.0 ], "cullface": "south" },
                "west": { "texture": "#2", "uv": [ 2.0, 2.0, 3.0, 10.0 ], "cullface": "west" },
                "up": { "texture": "#2", "uv": [ 0.0, 0.0, 6.0, 1.0 ], "cullface": "up" },
                "down": { "texture": "#0", "uv": [ 0.0, 0.0, 6.0, 1.0 ], "cullface": "down" }
            }
        },
        {
            "name": "SideE",
            "from": [ 11.0, 0.0, 5.0 ], 
            "to": [ 12.0, 8.0, 11.0 ], 
            "faces": {
                "north": { "texture": "#2", "uv": [ 2.0, 2.0, 3.0, 10.0 ], "cullface": "north" },
                "east": { "texture": "#1", "uv": [ 1.0, 2.0, 7.0, 10.0 ], "cullface": "east" },
                "south": { "texture": "#2", "uv": [ 2.0, 2.0, 3.0, 10.0 ], "cullface": "south" },
                "west": { "texture": "#1", "uv": [ 1.0, 1.0, 7.0, 9.0 ], "cullface": "west" },
                "up": { "texture": "#2", "uv": [ 9.0, 0.0, 1.0, 1.0 ], "cullface": "up" },
                "down": { "texture": "#0", "uv": [ 0.0, 0.0, 1.0, 6.0 ], "cullface": "down" }
            }
        },
        {
            "name": "SideW",
            "from": [ 4.0, 0.0, 5.0 ], 
            "to": [ 5.0, 8.0, 11.0 ], 
            "faces": {
                "north": { "texture": "#2", "uv": [ 2.0, 2.0, 3.0, 10.0 ], "cullface": "north" },
                "east": { "texture": "#1", "uv": [ 1.0, 1.0, 7.0, 9.0 ], "cullface": "east" },
                "south": { "texture": "#2", "uv": [ 2.0, 2.0, 3.0, 10.0 ], "cullface": "south" },
                "west": { "texture": "#1", "uv": [ 1.0, 2.0, 7.0, 10.0 ], "cullface": "west" },
                "up": { "texture": "#2", "uv": [ 0.0, 0.0, 1.0, 1.0 ], "cullface": "up" },
                "down": { "texture": "#0", "uv": [ 0.0, 0.0, 1.0, 6.0 ], "cullface": "down" }
            }
        }
    ]
}